11:31:59 [Skill] INFO  Skill:139 - Connecting to Furhat server on 192.168.1.3:1932
11:31:59 [PeriodcarerSkill] INFO  PeriodcarerSkill:166 - Starting skill
11:36:39 [PeriodcarerSkill] ERROR InitRunner: 28 - java.lang.NullPointerException
11:36:39 [EventSystem] INFO  PeriodcarerSkill:184 - Terminating skill
